{
    "TrkAnaOffl1" : {
        "enabled" : true,
        "TestType"  : "Offline",
        "RefType"   : "Truth", 
        "MatchingType"  : "TruthMatch", 
        "SubFolder"  : "TrkAnaOffl1/"
    }
}
